Proyecto-Spotify
…
A continuación, vamos a mapear un género para cada usuario segun el volumen promedio de las canciones que escuchan. Luego, vamos a comparar el género mapeado con el género percibido como favorito por el usuario. Para darle a cada usuario un genero estimado, vamos a asignarle aquel que tenga el volumen promedio más cercano al volumen promedio de las canciones que escucha segun la variable average_genders_info

average_genres_loudness <- average_genres_info %>% select(name, loudness)

# filter loudness & favourite_gender
users_estimated_genre <- DF %>% select(average_loudness, favourite_gender)
# We will add a new column to the dataframe with the estimated genre
users_estimated_genre$estimated_genre <- NA
users_estimated_genre$estimated_genre <- sapply(users_estimated_genre$average_loudness, function(x) {
  genre <- average_genres_loudness$name[which.min(abs(average_genres_loudness$loudness - x))]
  return(genre)
})
users_estimated_genre

# A tibble: 260 × 3
   average_loudness favourite_gender estimated_genre
              <dbl> <chr>            <chr>          
 1           -10.1  rock             rock           
 2            -4.74 rock             edm            
 3            -7.50 r&b              rap            
 4            -5.82 r&b              edm            
 5            -1.99 pop              edm            
 6            -6.16 r&b              edm            
 7           -10.0  r&b              rock           
 8            -6.35 r&b              edm            
 9            -4.89 edm              edm            
10            -6.06 r&b              edm            
# ℹ 250 more rows
…
